Homework 7
…
storms.sf <- storms_data %>% 
    st_as_sf(coords = c("long", "lat"), crs = 4326) 
class(storms.sf)

## [1] "sf"         "tbl_df"     "tbl"        "data.frame"

storms.sf %>% select(name, year, geometry)

## Simple feature collection with 442 features and 2 fields
## Geometry type: POINT
## Dimension:     XY
## Bounding box:  xmin: -103 ymin: 9.2 xmax: -19 ymax: 51.2
## Geodetic CRS:  WGS 84
## # A tibble: 442 × 3
##    name     year     geometry
##    <chr>   <dbl>  <POINT [°]>
##  1 Frances  1976 (-37.5 12.5)
##  2 Frances  1976 (-45.3 14.7)
##  3 Frances  1976 (-49.6 16.6)
##  4 Frances  1976 (-50.5 17.5)
##  5 Frances  1976 (-51.6 18.3)
##  6 Frances  1976 (-54.2 20.2)
##  7 Frances  1976   (-54.9 21)
##  8 Frances  1976 (-55.2 23.1)
##  9 Frances  1976 (-54.9 25.3)
## 10 Frances  1976 (-54.3 26.3)
## # ℹ 432 more rows

storms.sf <- storms.sf %>% 
    mutate(time = as.POSIXct(paste(paste(year,month,day, sep = "-"), 
                                   paste(hour, ":00", sep = "")))) %>% 
    select(-month, -day, -hour)
storms.sf %>% select(name, time, geometry)

## Simple feature collection with 442 features and 2 fields
## Geometry type: POINT
## Dimension:     XY
## Bounding box:  xmin: -103 ymin: 9.2 xmax: -19 ymax: 51.2
## Geodetic CRS:  WGS 84
## # A tibble: 442 × 3
##    name    time                    geometry
##    <chr>   <dttm>               <POINT [°]>
##  1 Frances 1976-08-27 12:00:00 (-37.5 12.5)
##  2 Frances 1976-08-28 18:00:00 (-45.3 14.7)
##  3 Frances 1976-08-29 12:00:00 (-49.6 16.6)
##  4 Frances 1976-08-29 18:00:00 (-50.5 17.5)
##  5 Frances 1976-08-30 00:00:00 (-51.6 18.3)
##  6 Frances 1976-08-30 18:00:00 (-54.2 20.2)
##  7 Frances 1976-08-31 00:00:00   (-54.9 21)
##  8 Frances 1976-08-31 12:00:00 (-55.2 23.1)
##  9 Frances 1976-09-01 00:00:00 (-54.9 25.3)
## 10 Frances 1976-09-01 06:00:00 (-54.3 26.3)
## # ℹ 432 more rows
…
